{
    "title": "28.10.2018 - Season 3 - AI vs NW",
    "links": [
        "https://stats.tribesrevengeance.net/matches/5bd6257a91f9ac001b15548f.json",
        "https://stats.tribesrevengeance.net/matches/5bd61fbd91f9ac001b15548d.json"
    ]
}